{
    "name": "Liberty Max",
    "id": "liberty-max",
    "description": "Créez des visuels pour Liberty Max en un instant !",
    "availableLangs": ["fr", "en"],
    "matomo": {
        "enabled": false
    },
    "email": "libertymax.vannes@gmail.com",
    "url": "https://liberty-max.fr/",
    "about": {
        "fr": "Liberty Max est l'association LGBTQIA+ du pays Vannetais, dans le Morbihan. Nous organisons les prides, événements, rencontres et actions sur le territoire.<br/>L'association est ouverte à tous.tes, n'hésitez pas à nous rejoindre ! Retrouvez nos actualités et rendez-vous sur Instagram et Facebook.",
        "en": "Liberty Max is the LGBTQIA+ association from Vannes, in Brittany (France). We organize prides, events and meetings.<br/>The association is open to everyone, don't hesitate to join us ! Check our latest news on Instagram and Facebook."
    }
}
