[
{
	"id": "instagram-square",
	"label": "instagram-square",
	"width": 1080,
	"height": 1080,
	"resolution": 96,
	"orientationFixed": false
},
{
	"id": "instagram-story",
	"label": "instagram-story",
	"width": 1080,
	"height": 1920,
	"resolution": 96,
	"orientationFixed": false
},
{
	"id": "a4",
	"label": "a4",
	"width": 596,
	"height": 842,
	"resolution": 96,
	"orientationFixed": false
},
{
	"id": "16-9",
	"label": "16-9",
	"width": 1920,
	"height": 1080,
	"resolution": 96,
	"orientationFixed": false
},
{
	"id": "discord-event",
	"label": "discord-event",
	"width": 800,
	"height": 320,
	"resolution": 96,
	"orientationFixed": false
}
]